{
    "fields": [
        {
            "name": "id",
            "labels": "Id",
            "html-type": "text",
            "css-class": "",
            "options": {},
            "html-value": null,
            "validation": "",
            "is-on-index": false,
            "is-on-show": false,
            "is-on-form": false,
            "data-type": "int",
            "data-type-params": [],
            "data-value": null,
            "is-index": false,
            "is-unique": false,
            "is-primary": true,
            "comment": null,
            "is-nullable": false,
            "is-header": false,
            "is-unsigned": true,
            "is-auto-increment": true,
            "is-inline-options": false,
            "is-date": false,
            "date-format": "",
            "cast-as": "",
            "placeholder": "Enter id here...",
            "delimiter": "; ",
            "range": [],
            "foreign-relation": null,
            "foreign-constraint": null,
            "on-store": null,
            "on-update": null,
            "api-key": "id",
            "is-api-visible": true,
            "api-description": "The id of the model."
        },
        {
            "name": "company_id",
            "labels": "Company",
            "html-type": "select",
            "css-class": "",
            "options": {},
            "html-value": null,
            "validation": "",
            "is-on-index": true,
            "is-on-show": false,
            "is-on-form": false,
            "data-type": "int",
            "data-type-params": [],
            "data-value": null,
            "is-index": true,
            "is-unique": false,
            "is-primary": false,
            "comment": null,
            "is-nullable": false,
            "is-header": false,
            "is-unsigned": true,
            "is-auto-increment": false,
            "is-inline-options": false,
            "is-date": false,
            "date-format": "",
            "cast-as": "",
            "placeholder": "Select company",
            "delimiter": "; ",
            "range": [],
            "foreign-relation": {
                "name": "company",
                "type": "belongsTo",
                "params": [
                    "App\\Models\\User",
                    "company_id"
                ],
                "field": "username"
            },
            "foreign-constraint": null,
            "on-store": null,
            "on-update": null,
            "api-key": "company_id",
            "is-api-visible": true,
            "api-description": "The company of the model."
        },
        {
            "name": "monthyear",
            "labels": "Monthyear",
            "html-type": "text",
            "css-class": "",
            "options": {},
            "html-value": null,
            "validation": "required",
            "is-on-index": true,
            "is-on-show": true,
            "is-on-form": true,
            "data-type": "string",
            "data-type-params": [],
            "data-value": null,
            "is-index": false,
            "is-unique": false,
            "is-primary": false,
            "comment": null,
            "is-nullable": false,
            "is-header": false,
            "is-unsigned": false,
            "is-auto-increment": false,
            "is-inline-options": false,
            "is-date": false,
            "date-format": "",
            "cast-as": "",
            "placeholder": "Enter monthyear here...",
            "delimiter": "; ",
            "range": [],
            "foreign-relation": null,
            "foreign-constraint": null,
            "on-store": null,
            "on-update": null,
            "api-key": "monthyear",
            "is-api-visible": true,
            "api-description": "The monthyear of the model."
        },
        {
            "name": "branch_id",
            "labels": "Branch",
            "html-type": "select",
            "css-class": "",
            "options": {},
            "html-value": null,
            "validation": "required",
            "is-on-index": true,
            "is-on-show": true,
            "is-on-form": true,
            "data-type": "int",
            "data-type-params": [],
            "data-value": null,
            "is-index": true,
            "is-unique": false,
            "is-primary": false,
            "comment": null,
            "is-nullable": false,
            "is-header": false,
            "is-unsigned": true,
            "is-auto-increment": false,
            "is-inline-options": false,
            "is-date": false,
            "date-format": "",
            "cast-as": "",
            "placeholder": "Select branch",
            "delimiter": "; ",
            "range": [],
            "foreign-relation": {
                "name": "branch",
                "type": "belongsTo",
                "params": [
                    "App\\Models\\Branch",
                    "branch_id"
                ],
                "field": "name"
            },
            "foreign-constraint": null,
            "on-store": null,
            "on-update": null,
            "api-key": "branch_id",
            "is-api-visible": true,
            "api-description": "The branch of the model."
        },
        {
            "name": "net_bill_amt",
            "labels": "Net Bill Amt",
            "html-type": "number",
            "css-class": "",
            "options": {},
            "html-value": null,
            "validation": "numeric",
            "is-on-index": true,
            "is-on-show": true,
            "is-on-form": true,
            "data-type": "decimal(10, 2)",
            "data-type-params": [],
            "data-value": null,
            "is-index": false,
            "is-unique": false,
            "is-primary": false,
            "comment": null,
            "is-nullable": true,
            "is-header": false,
            "is-unsigned": false,
            "is-auto-increment": false,
            "is-inline-options": false,
            "is-date": false,
            "date-format": "",
            "cast-as": "",
            "placeholder": "Enter net bill amt here...",
            "delimiter": "; ",
            "range": [],
            "foreign-relation": null,
            "foreign-constraint": null,
            "on-store": null,
            "on-update": null,
            "api-key": "net_bill_amt",
            "is-api-visible": true,
            "api-description": "The net bill amt of the model."
        },
        {
            "name": "bill_amount",
            "labels": "Bill Amount",
            "html-type": "number",
            "css-class": "",
            "options": {},
            "html-value": null,
            "validation": "numeric",
            "is-on-index": true,
            "is-on-show": true,
            "is-on-form": true,
            "data-type": "decimal(10, 2)",
            "data-type-params": [],
            "data-value": null,
            "is-index": false,
            "is-unique": false,
            "is-primary": false,
            "comment": null,
            "is-nullable": true,
            "is-header": false,
            "is-unsigned": false,
            "is-auto-increment": false,
            "is-inline-options": false,
            "is-date": false,
            "date-format": "",
            "cast-as": "",
            "placeholder": "Enter bill amount here...",
            "delimiter": "; ",
            "range": [],
            "foreign-relation": null,
            "foreign-constraint": null,
            "on-store": null,
            "on-update": null,
            "api-key": "bill_amount",
            "is-api-visible": true,
            "api-description": "The bill amount of the model."
        },
        {
            "name": "service_tax",
            "labels": "Service Tax",
            "html-type": "number",
            "css-class": "",
            "options": {},
            "html-value": null,
            "validation": "numeric",
            "is-on-index": true,
            "is-on-show": true,
            "is-on-form": true,
            "data-type": "decimal(10, 2)",
            "data-type-params": [],
            "data-value": null,
            "is-index": false,
            "is-unique": false,
            "is-primary": false,
            "comment": null,
            "is-nullable": true,
            "is-header": false,
            "is-unsigned": false,
            "is-auto-increment": false,
            "is-inline-options": false,
            "is-date": false,
            "date-format": "",
            "cast-as": "",
            "placeholder": "Enter service tax here...",
            "delimiter": "; ",
            "range": [],
            "foreign-relation": null,
            "foreign-constraint": null,
            "on-store": null,
            "on-update": null,
            "api-key": "service_tax",
            "is-api-visible": true,
            "api-description": "The service tax of the model."
        },
        {
            "name": "gross_amount",
            "labels": "Gross Amount",
            "html-type": "number",
            "css-class": "",
            "options": {},
            "html-value": null,
            "validation": "numeric",
            "is-on-index": true,
            "is-on-show": true,
            "is-on-form": true,
            "data-type": "decimal(10, 2)",
            "data-type-params": [],
            "data-value": null,
            "is-index": false,
            "is-unique": false,
            "is-primary": false,
            "comment": null,
            "is-nullable": true,
            "is-header": false,
            "is-unsigned": false,
            "is-auto-increment": false,
            "is-inline-options": false,
            "is-date": false,
            "date-format": "",
            "cast-as": "",
            "placeholder": "Enter gross amount here...",
            "delimiter": "; ",
            "range": [],
            "foreign-relation": null,
            "foreign-constraint": null,
            "on-store": null,
            "on-update": null,
            "api-key": "gross_amount",
            "is-api-visible": true,
            "api-description": "The gross amount of the model."
        },
        {
            "name": "service_charge",
            "labels": "Service Charge",
            "html-type": "number",
            "css-class": "",
            "options": {},
            "html-value": null,
            "validation": "numeric",
            "is-on-index": true,
            "is-on-show": true,
            "is-on-form": true,
            "data-type": "decimal(10, 2)",
            "data-type-params": [],
            "data-value": null,
            "is-index": false,
            "is-unique": false,
            "is-primary": false,
            "comment": null,
            "is-nullable": true,
            "is-header": false,
            "is-unsigned": false,
            "is-auto-increment": false,
            "is-inline-options": false,
            "is-date": false,
            "date-format": "",
            "cast-as": "",
            "placeholder": "Enter service charge here...",
            "delimiter": "; ",
            "range": [],
            "foreign-relation": null,
            "foreign-constraint": null,
            "on-store": null,
            "on-update": null,
            "api-key": "service_charge",
            "is-api-visible": true,
            "api-description": "The service charge of the model."
        },
        {
            "name": "pf_amt_12",
            "labels": "Pf Amt 12",
            "html-type": "number",
            "css-class": "",
            "options": {},
            "html-value": null,
            "validation": "numeric",
            "is-on-index": true,
            "is-on-show": true,
            "is-on-form": true,
            "data-type": "decimal(10, 2)",
            "data-type-params": [],
            "data-value": null,
            "is-index": false,
            "is-unique": false,
            "is-primary": false,
            "comment": null,
            "is-nullable": true,
            "is-header": false,
            "is-unsigned": false,
            "is-auto-increment": false,
            "is-inline-options": false,
            "is-date": false,
            "date-format": "",
            "cast-as": "",
            "placeholder": "Enter pf amt 12 here...",
            "delimiter": "; ",
            "range": [],
            "foreign-relation": null,
            "foreign-constraint": null,
            "on-store": null,
            "on-update": null,
            "api-key": "pf_amt_12",
            "is-api-visible": true,
            "api-description": "The pf amt 12 of the model."
        },
        {
            "name": "esi_amt",
            "labels": "Esi Amt",
            "html-type": "number",
            "css-class": "",
            "options": {},
            "html-value": null,
            "validation": "numeric",
            "is-on-index": true,
            "is-on-show": true,
            "is-on-form": true,
            "data-type": "decimal(10, 2)",
            "data-type-params": [],
            "data-value": null,
            "is-index": false,
            "is-unique": false,
            "is-primary": false,
            "comment": null,
            "is-nullable": true,
            "is-header": false,
            "is-unsigned": false,
            "is-auto-increment": false,
            "is-inline-options": false,
            "is-date": false,
            "date-format": "",
            "cast-as": "",
            "placeholder": "Enter esi amt here...",
            "delimiter": "; ",
            "range": [],
            "foreign-relation": null,
            "foreign-constraint": null,
            "on-store": null,
            "on-update": null,
            "api-key": "esi_amt",
            "is-api-visible": true,
            "api-description": "The esi amt of the model."
        },
        {
            "name": "leave_amt",
            "labels": "Leave Amt",
            "html-type": "number",
            "css-class": "",
            "options": {},
            "html-value": null,
            "validation": "numeric",
            "is-on-index": true,
            "is-on-show": true,
            "is-on-form": true,
            "data-type": "decimal(10, 2)",
            "data-type-params": [],
            "data-value": null,
            "is-index": false,
            "is-unique": false,
            "is-primary": false,
            "comment": null,
            "is-nullable": true,
            "is-header": false,
            "is-unsigned": false,
            "is-auto-increment": false,
            "is-inline-options": false,
            "is-date": false,
            "date-format": "",
            "cast-as": "",
            "placeholder": "Enter leave amt here...",
            "delimiter": "; ",
            "range": [],
            "foreign-relation": null,
            "foreign-constraint": null,
            "on-store": null,
            "on-update": null,
            "api-key": "leave_amt",
            "is-api-visible": true,
            "api-description": "The leave amt of the model."
        },
        {
            "name": "bonus_amt",
            "labels": "Bonus Amt",
            "html-type": "number",
            "css-class": "",
            "options": {},
            "html-value": null,
            "validation": "numeric",
            "is-on-index": true,
            "is-on-show": true,
            "is-on-form": true,
            "data-type": "decimal(10, 2)",
            "data-type-params": [],
            "data-value": null,
            "is-index": false,
            "is-unique": false,
            "is-primary": false,
            "comment": null,
            "is-nullable": true,
            "is-header": false,
            "is-unsigned": false,
            "is-auto-increment": false,
            "is-inline-options": false,
            "is-date": false,
            "date-format": "",
            "cast-as": "",
            "placeholder": "Enter bonus amt here...",
            "delimiter": "; ",
            "range": [],
            "foreign-relation": null,
            "foreign-constraint": null,
            "on-store": null,
            "on-update": null,
            "api-key": "bonus_amt",
            "is-api-visible": true,
            "api-description": "The bonus amt of the model."
        },
        {
            "name": "recover_payment",
            "labels": "Recover Payment",
            "html-type": "number",
            "css-class": "",
            "options": {},
            "html-value": null,
            "validation": "numeric",
            "is-on-index": true,
            "is-on-show": true,
            "is-on-form": true,
            "data-type": "decimal(10, 2)",
            "data-type-params": [],
            "data-value": null,
            "is-index": false,
            "is-unique": false,
            "is-primary": false,
            "comment": null,
            "is-nullable": true,
            "is-header": false,
            "is-unsigned": false,
            "is-auto-increment": false,
            "is-inline-options": false,
            "is-date": false,
            "date-format": "",
            "cast-as": "",
            "placeholder": "Enter recover payment here...",
            "delimiter": "; ",
            "range": [],
            "foreign-relation": null,
            "foreign-constraint": null,
            "on-store": null,
            "on-update": null,
            "api-key": "recover_payment",
            "is-api-visible": true,
            "api-description": "The recover payment of the model."
        },
        {
            "name": "professional_tax",
            "labels": "Professional Tax",
            "html-type": "number",
            "css-class": "",
            "options": {},
            "html-value": null,
            "validation": "numeric",
            "is-on-index": true,
            "is-on-show": true,
            "is-on-form": true,
            "data-type": "decimal(10, 2)",
            "data-type-params": [],
            "data-value": null,
            "is-index": false,
            "is-unique": false,
            "is-primary": false,
            "comment": null,
            "is-nullable": true,
            "is-header": false,
            "is-unsigned": false,
            "is-auto-increment": false,
            "is-inline-options": false,
            "is-date": false,
            "date-format": "",
            "cast-as": "",
            "placeholder": "Enter professional tax here...",
            "delimiter": "; ",
            "range": [],
            "foreign-relation": null,
            "foreign-constraint": null,
            "on-store": null,
            "on-update": null,
            "api-key": "professional_tax",
            "is-api-visible": true,
            "api-description": "The professional tax of the model."
        },
        {
            "name": "other_amt",
            "labels": "Other Amt",
            "html-type": "number",
            "css-class": "",
            "options": {},
            "html-value": null,
            "validation": "numeric",
            "is-on-index": true,
            "is-on-show": true,
            "is-on-form": true,
            "data-type": "decimal(10, 2)",
            "data-type-params": [],
            "data-value": null,
            "is-index": false,
            "is-unique": false,
            "is-primary": false,
            "comment": null,
            "is-nullable": true,
            "is-header": false,
            "is-unsigned": false,
            "is-auto-increment": false,
            "is-inline-options": false,
            "is-date": false,
            "date-format": "",
            "cast-as": "",
            "placeholder": "Enter other amt here...",
            "delimiter": "; ",
            "range": [],
            "foreign-relation": null,
            "foreign-constraint": null,
            "on-store": null,
            "on-update": null,
            "api-key": "other_amt",
            "is-api-visible": true,
            "api-description": "The other amt of the model."
        },
        {
            "name": "extra_exp",
            "labels": "Extra Exp",
            "html-type": "number",
            "css-class": "",
            "options": {},
            "html-value": null,
            "validation": "numeric",
            "is-on-index": true,
            "is-on-show": true,
            "is-on-form": true,
            "data-type": "decimal(10, 2)",
            "data-type-params": [],
            "data-value": null,
            "is-index": false,
            "is-unique": false,
            "is-primary": false,
            "comment": null,
            "is-nullable": true,
            "is-header": false,
            "is-unsigned": false,
            "is-auto-increment": false,
            "is-inline-options": false,
            "is-date": false,
            "date-format": "",
            "cast-as": "",
            "placeholder": "Enter extra exp here...",
            "delimiter": "; ",
            "range": [],
            "foreign-relation": null,
            "foreign-constraint": null,
            "on-store": null,
            "on-update": null,
            "api-key": "extra_exp",
            "is-api-visible": true,
            "api-description": "The extra exp of the model."
        },
        {
            "name": "tds",
            "labels": "Tds",
            "html-type": "number",
            "css-class": "",
            "options": {},
            "html-value": null,
            "validation": "numeric",
            "is-on-index": true,
            "is-on-show": true,
            "is-on-form": true,
            "data-type": "decimal(10, 2)",
            "data-type-params": [],
            "data-value": null,
            "is-index": false,
            "is-unique": false,
            "is-primary": false,
            "comment": null,
            "is-nullable": true,
            "is-header": false,
            "is-unsigned": false,
            "is-auto-increment": false,
            "is-inline-options": false,
            "is-date": false,
            "date-format": "",
            "cast-as": "",
            "placeholder": "Enter tds here...",
            "delimiter": "; ",
            "range": [],
            "foreign-relation": null,
            "foreign-constraint": null,
            "on-store": null,
            "on-update": null,
            "api-key": "tds",
            "is-api-visible": true,
            "api-description": "The tds of the model."
        },
        {
            "name": "net_amt",
            "labels": "Net Amt",
            "html-type": "number",
            "css-class": "",
            "options": {},
            "html-value": null,
            "validation": "numeric",
            "is-on-index": true,
            "is-on-show": true,
            "is-on-form": true,
            "data-type": "decimal(10, 2)",
            "data-type-params": [],
            "data-value": null,
            "is-index": false,
            "is-unique": false,
            "is-primary": false,
            "comment": null,
            "is-nullable": true,
            "is-header": false,
            "is-unsigned": false,
            "is-auto-increment": false,
            "is-inline-options": false,
            "is-date": false,
            "date-format": "",
            "cast-as": "",
            "placeholder": "Enter net amt here...",
            "delimiter": "; ",
            "range": [],
            "foreign-relation": null,
            "foreign-constraint": null,
            "on-store": null,
            "on-update": null,
            "api-key": "net_amt",
            "is-api-visible": true,
            "api-description": "The net amt of the model."
        },
        {
            "name": "gross_salary",
            "labels": "Gross Salary",
            "html-type": "number",
            "css-class": "",
            "options": {},
            "html-value": null,
            "validation": "numeric",
            "is-on-index": true,
            "is-on-show": true,
            "is-on-form": true,
            "data-type": "decimal(10, 2)",
            "data-type-params": [],
            "data-value": null,
            "is-index": false,
            "is-unique": false,
            "is-primary": false,
            "comment": null,
            "is-nullable": true,
            "is-header": false,
            "is-unsigned": false,
            "is-auto-increment": false,
            "is-inline-options": false,
            "is-date": false,
            "date-format": "",
            "cast-as": "",
            "placeholder": "Enter gross salary here...",
            "delimiter": "; ",
            "range": [],
            "foreign-relation": null,
            "foreign-constraint": null,
            "on-store": null,
            "on-update": null,
            "api-key": "gross_salary",
            "is-api-visible": true,
            "api-description": "The gross salary of the model."
        },
        {
            "name": "payroll_gross",
            "labels": "Payroll Gross",
            "html-type": "number",
            "css-class": "",
            "options": {},
            "html-value": null,
            "validation": "numeric",
            "is-on-index": true,
            "is-on-show": true,
            "is-on-form": true,
            "data-type": "decimal(10, 2)",
            "data-type-params": [],
            "data-value": null,
            "is-index": false,
            "is-unique": false,
            "is-primary": false,
            "comment": null,
            "is-nullable": true,
            "is-header": false,
            "is-unsigned": false,
            "is-auto-increment": false,
            "is-inline-options": false,
            "is-date": false,
            "date-format": "",
            "cast-as": "",
            "placeholder": "Enter payroll gross here...",
            "delimiter": "; ",
            "range": [],
            "foreign-relation": null,
            "foreign-constraint": null,
            "on-store": null,
            "on-update": null,
            "api-key": "payroll_gross",
            "is-api-visible": true,
            "api-description": "The payroll gross of the model."
        },
        {
            "name": "diff_amt",
            "labels": "Diff Amt",
            "html-type": "number",
            "css-class": "",
            "options": {},
            "html-value": null,
            "validation": "numeric",
            "is-on-index": true,
            "is-on-show": true,
            "is-on-form": true,
            "data-type": "decimal(10, 2)",
            "data-type-params": [],
            "data-value": null,
            "is-index": false,
            "is-unique": false,
            "is-primary": false,
            "comment": null,
            "is-nullable": true,
            "is-header": false,
            "is-unsigned": false,
            "is-auto-increment": false,
            "is-inline-options": false,
            "is-date": false,
            "date-format": "",
            "cast-as": "",
            "placeholder": "Enter diff amt here...",
            "delimiter": "; ",
            "range": [],
            "foreign-relation": null,
            "foreign-constraint": null,
            "on-store": null,
            "on-update": null,
            "api-key": "diff_amt",
            "is-api-visible": true,
            "api-description": "The diff amt of the model."
        },
        {
            "name": "salary_paid",
            "labels": "Salary Paid",
            "html-type": "number",
            "css-class": "",
            "options": {},
            "html-value": null,
            "validation": "numeric",
            "is-on-index": true,
            "is-on-show": true,
            "is-on-form": true,
            "data-type": "decimal(10, 2)",
            "data-type-params": [],
            "data-value": null,
            "is-index": false,
            "is-unique": false,
            "is-primary": false,
            "comment": null,
            "is-nullable": true,
            "is-header": false,
            "is-unsigned": false,
            "is-auto-increment": false,
            "is-inline-options": false,
            "is-date": false,
            "date-format": "",
            "cast-as": "",
            "placeholder": "Enter salary paid here...",
            "delimiter": "; ",
            "range": [],
            "foreign-relation": null,
            "foreign-constraint": null,
            "on-store": null,
            "on-update": null,
            "api-key": "salary_paid",
            "is-api-visible": true,
            "api-description": "The salary paid of the model."
        },
        {
            "name": "profit",
            "labels": "Profit",
            "html-type": "number",
            "css-class": "",
            "options": {},
            "html-value": null,
            "validation": "numeric",
            "is-on-index": true,
            "is-on-show": true,
            "is-on-form": true,
            "data-type": "decimal(10, 2)",
            "data-type-params": [],
            "data-value": null,
            "is-index": false,
            "is-unique": false,
            "is-primary": false,
            "comment": null,
            "is-nullable": true,
            "is-header": false,
            "is-unsigned": false,
            "is-auto-increment": false,
            "is-inline-options": false,
            "is-date": false,
            "date-format": "",
            "cast-as": "",
            "placeholder": "Enter profit here...",
            "delimiter": "; ",
            "range": [],
            "foreign-relation": null,
            "foreign-constraint": null,
            "on-store": null,
            "on-update": null,
            "api-key": "profit",
            "is-api-visible": true,
            "api-description": "The profit of the model."
        },
        {
            "name": "net_profit",
            "labels": "Net Profit",
            "html-type": "number",
            "css-class": "",
            "options": {},
            "html-value": null,
            "validation": "numeric",
            "is-on-index": true,
            "is-on-show": true,
            "is-on-form": true,
            "data-type": "decimal(10, 2)",
            "data-type-params": [],
            "data-value": null,
            "is-index": false,
            "is-unique": false,
            "is-primary": false,
            "comment": null,
            "is-nullable": true,
            "is-header": false,
            "is-unsigned": false,
            "is-auto-increment": false,
            "is-inline-options": false,
            "is-date": false,
            "date-format": "",
            "cast-as": "",
            "placeholder": "Enter net profit here...",
            "delimiter": "; ",
            "range": [],
            "foreign-relation": null,
            "foreign-constraint": null,
            "on-store": null,
            "on-update": null,
            "api-key": "net_profit",
            "is-api-visible": true,
            "api-description": "The net profit of the model."
        }
    ],
    "relations": [],
    "indexes": [],
    "auto-manage-created-and-updated-at": true,
    "table-name": null,
    "protection": {
        "is-model-protected": false,
        "is-controller-protected": false,
        "is-api-resource-protected": false,
        "is-api-resource-collection-protected": false,
        "is-api-documentation-protected": false,
        "is-api-documentation-controller-protected": false,
        "is-form-request-protected": false,
        "is-languages-protected": false,
        "is-form-view-protected": false,
        "is-index-view-protected": false,
        "is-create-view-protected": false,
        "is-edit-view-protected": false,
        "is-show-view-protected": false
    },
    "api-documentation": {
        "access_token_with_bearer": "The access token prefixed with the \"Bearer \" key word.",
        "index_route_description": "Retrieve existing branch bills.",
        "index_route_response_description": "The API's response will be JSON based data. The JSON object will be structured as follow",
        "the_key_is_the_model_property_and_the_value_is_the_model_value": "The array's key is the branch bill property name where the value is the assigned value to the retrieved branch bill.",
        "link_to_retrieve_first_page": "Link to retrieve first page.",
        "link_to_retrieve_last_page": "Link to retrieve last page.",
        "link_to_retrieve_previous_page": "Link to retrieve previous page.",
        "link_to_retrieve_next_page": "Link to retrieve next page.",
        "the_number_of_current_page": "The number of current page.",
        "the_index_of_the_first_retrieved_item": "The index of first retrieved branch bill.",
        "the_number_of_the_last_page": "The number of the last page.",
        "the_base_link_to_the_resource": "The base link to the api resource.",
        "the_number_of_models_per_page": "The number of branch bills per page.",
        "the_index_of_the_last_retrieved_item": "The index of last retrieved branch bill.",
        "the_total_of_available_pages": "The total of the available pages.",
        "store_route_description": "Create new branch bill.",
        "store_route_response_description": "The API's response will be JSON based data. The JSON object will be structured as follow",
        "update_route_description": "Update existsing branch bill.",
        "update_route_response_description": "The API's response will be JSON based data. The JSON object will be structured as follow",
        "show_route_description": "Retrieve existsing branch bill.",
        "show_route_response_description": "The API's response will be JSON based data. The JSON object will be structured as follow",
        "the_id_of_model_to_retrieve": "The unique id of the branch bill to retrieve",
        "destroy_route_description": "Delete existsing branch bill.",
        "destroy_route_response_description": "The API's response will be JSON based data. The JSON object will be structured as follow",
        "the_id_of_model_to_delete": "The id of the branch bill to delete.",
        "general_description": "Allows you to list, create, edit, show and delete branch bills.",
        "indicate_whether_the_request_was_successful_or_not": "Indicate whether the request was successful or not.",
        "the_id_of_the_model": "The id of the branch bill.",
        "this_parameter_must_be_present_in_the_request": "This parameter must be present in the request.",
        "the_request_failed_validation": "The request failed validation.",
        "list_of_the_invalid_errors": "List of the invalid errors.",
        "the_requested_model_does_not_exists": "The requested branch bill does not exists.",
        "the_user_does_not_have_permission_to_access_the_requested_resource": "User does not have permission to access the requested resource."
    }
}